Intermediate R, Session 2
…
```
## Rows: 100 Columns: 5
## ── Column specification ────────────────────────────────────────────────────────
## Delimiter: ","
## dbl (5): ENTREZ, CD34_1, ORTHO_1, CD34_2, ORTHO_2
## 
## ℹ Use `spec()` to retrieve the full column specification for this data.
## ℹ Specify the column types or set `show_col_types = FALSE` to quiet this message.
```

```
## # A tibble: 100 × 5
##    ENTREZ CD34_1 ORTHO_1 CD34_2 ORTHO_2
##     <dbl>  <dbl>   <dbl>  <dbl>   <dbl>
##  1    350    204       0    103       0
##  2    351  15586     479  10476      39
##  3    353    842     355   1188      86
##  4    354      0       0      0       0
##  5    355    123     291    139      16
##  6    356      1       1      0       0
##  7    357    380       3    177       0
##  8    358    572    2225    597    4051
##  9    359      0      12      1       0
## 10    360    320     502     46    1114
## # ℹ 90 more rows
```

---
## Reading in with readr

Tibbles carry and display extra information. While reading in it is easy to specify data type. 

``` r
untidy_counts <- read_csv("data/hemato_rnaseq_counts.csv", col_types = cols(ENTREZ = col_character(),
    CD34_1 = col_integer(), ORTHO_1 = col_integer(), CD34_2 = col_integer(), ORTHO_2 = col_integer()))

untidy_counts
```

```
## # A tibble: 100 × 5
##    ENTREZ CD34_1 ORTHO_1 CD34_2 ORTHO_2
##    <chr>   <int>   <int>  <int>   <int>
##  1 350       204       0    103       0
##  2 351     15586     479  10476      39
##  3 353       842     355   1188      86
##  4 354         0       0      0       0
##  5 355       123     291    139      16
##  6 356         1       1      0       0
##  7 357       380       3    177       0
##  8 358       572    2225    597    4051
##  9 359         0      12      1       0
## 10 360       320     502     46    1114
## # ℹ 90 more rows
```
…
```
## # A tibble: 1 × 5
##   ENTREZ CD34_1 ORTHO_1 CD34_2 ORTHO_2
##   <chr>   <int>   <int>  <int>   <int>
## 1 350       204       0    103       0
```

``` r
untidy_counts[, 1]
```

```
## # A tibble: 100 × 1
##    ENTREZ
##    <chr> 
##  1 350   
##  2 351   
##  3 353   
##  4 354   
##  5 355   
##  6 356   
##  7 357   
##  8 358   
##  9 359   
## 10 360   
## # ℹ 90 more rows
```

---
## Subsetting to make tibbles

Tibbles are column-oriented, so if you don't specify row/column with a comma, it will assume you want a column. 

``` r
untidy_counts[1]
```

```
## # A tibble: 100 × 1
##    ENTREZ
##    <chr> 
##  1 350   
##  2 351   
##  3 353   
##  4 354   
##  5 355   
##  6 356   
##  7 357   
##  8 358   
##  9 359   
## 10 360   
## # ℹ 90 more rows
```
…
---
## Tibbles: Converting to tibble

There are coercion functions similar to base to convert a regular dataframe to a tibble. 

``` r
as_tibble(untidy_counts_base)
```

```
## # A tibble: 100 × 5
##    ENTREZ CD34_1 ORTHO_1 CD34_2 ORTHO_2
##     <int>  <int>   <int>  <int>   <int>
##  1    350    204       0    103       0
##  2    351  15586     479  10476      39
##  3    353    842     355   1188      86
##  4    354      0       0      0       0
##  5    355    123     291    139      16
##  6    356      1       1      0       0
##  7    357    380       3    177       0
##  8    358    572    2225    597    4051
##  9    359      0      12      1       0
## 10    360    320     502     46    1114
## # ℹ 90 more rows
```
…
---
## Tibbles: Make your own

Now we will put all the metadata together into a tibble. 

``` r
counts_metadata <- tibble(ID = symbols$ENTREZID, SYMBOL = symbols$SYMBOL, LENGTH = lengths(hg38_genes))

counts_metadata
```

```
## # A tibble: 35,356 × 3
##    ID        SYMBOL     LENGTH
##    <chr>     <chr>       <int>
##  1 1         A1BG        17574
##  2 10        NAT2        14946
##  3 100       ADA         67357
##  4 1000      CDH2       245068
##  5 100008586 GAGE12F     16941
##  6 100008587 RNA5-8SN5     153
##  7 100009613 LINC02584   13282
##  8 100009667 POU5F1P5      658
##  9 100009676 ZBTB11-AS1   2797
## 10 10001     MED6        59948
## # ℹ 35,346 more rows
```
…
Now we know how to read data in weill want to tidy it. What is wrong with the count dataframe from a tidy viewpoint?  

_Remember_. These are the rules:

* Each variable has its own column
* Each observation has its own row
* Each value has its own cell

``` r
untidy_counts
```

```
## # A tibble: 100 × 5
##    ENTREZ CD34_1 ORTHO_1 CD34_2 ORTHO_2
##    <chr>   <int>   <int>  <int>   <int>
##  1 350       204       0    103       0
##  2 351     15586     479  10476      39
##  3 353       842     355   1188      86
##  4 354         0       0      0       0
##  5 355       123     291    139      16
##  6 356         1       1      0       0
##  7 357       380       3    177       0
##  8 358       572    2225    597    4051
##  9 359         0      12      1       0
## 10 360       320     502     46    1114
## # ℹ 90 more rows
```
…
_Remember_, these are the rules:

* Each variable has its own column
* Each observation has its own row
* Each value has its own cell

__A single variable with multiple columns__

``` r
untidy_counts
```

```
## # A tibble: 100 × 5
##    ENTREZ CD34_1 ORTHO_1 CD34_2 ORTHO_2
##    <chr>   <int>   <int>  <int>   <int>
##  1 350       204       0    103       0
##  2 351     15586     479  10476      39
##  3 353       842     355   1188      86
##  4 354         0       0      0       0
##  5 355       123     291    139      16
##  6 356         1       1      0       0
##  7 357       380       3    177       0
##  8 358       572    2225    597    4051
##  9 359         0      12      1       0
## 10 360       320     502     46    1114
## # ℹ 90 more rows
```

---
## Reshape data with pivot_*

In this case we have multiple samples as columns. Though this is intuitive for some analyses and plotting, often this is not what we want and it is untidy. When all the data is in the wrong orientation, tidyr has some tools to move the data around quickly and easily:  

__pivot_longer and pivot_wider__

```
## # A tibble: 400 × 3
##    ENTREZ Sample  counts
##    <chr>  <chr>    <int>
##  1 350    CD34_1     204
##  2 350    ORTHO_1      0
##  3 350    CD34_2     103
##  4 350    ORTHO_2      0
##  5 351    CD34_1   15586
##  6 351    ORTHO_1    479
##  7 351    CD34_2   10476
##  8 351    ORTHO_2     39
##  9 353    CD34_1     842
## 10 353    ORTHO_1    355
## # ℹ 390 more rows
```
---
## tidyr::pivot_longer

In this case, pivot_longer creates new columns Sample and Counts. Sample is made from the column names hence *names_to*. While Counts is made from the values within the columns hence *values_to*. We are also specifying that we are tidying all columns apart from ENTREZ with the cols argument. 

**This replaced a function called gather**

``` r
tidier_counts <- pivot_longer(untidy_counts, names_to = "Sample", values_to = "counts",
    cols = c(-ENTREZ))
tidier_counts
```

```
## # A tibble: 400 × 3
##    ENTREZ Sample  counts
##    <chr>  <chr>    <int>
##  1 350    CD34_1     204
##  2 350    ORTHO_1      0
##  3 350    CD34_2     103
##  4 350    ORTHO_2      0
##  5 351    CD34_1   15586
##  6 351    ORTHO_1    479
##  7 351    CD34_2   10476
##  8 351    ORTHO_2     39
##  9 353    CD34_1     842
## 10 353    ORTHO_1    355
## # ℹ 390 more rows
```

---
## tidyr::pivot_wider
pivot_wider allows you to go in the opposite direction to pivot_longer. We can spread single variables over multiple columns. Intuitively we use the arguments: *names_from* and *values_from*, to determine which columns we are getting arguments from. 

**This replaced a function called spread**

``` r
pivot_wider(tidier_counts, names_from = c(Sample), values_from = counts)
```

```
## # A tibble: 100 × 5
##    ENTREZ CD34_1 ORTHO_1 CD34_2 ORTHO_2
##    <chr>   <int>   <int>  <int>   <int>
##  1 350       204       0    103       0
##  2 351     15586     479  10476      39
##  3 353       842     355   1188      86
##  4 354         0       0      0       0
##  5 355       123     291    139      16
##  6 356         1       1      0       0
##  7 357       380       3    177       0
##  8 358       572    2225    597    4051
##  9 359         0      12      1       0
## 10 360       320     502     46    1114
## # ℹ 90 more rows
```
---
## What is next to tidy?

_Remember_, these are the rules:

* Each variable has its own column
* Each observation has its own row
* Each value has its own cell

``` r
tidier_counts
```

```
## # A tibble: 400 × 3
##    ENTREZ Sample  counts
##    <chr>  <chr>    <int>
##  1 350    CD34_1     204
##  2 350    ORTHO_1      0
##  3 350    CD34_2     103
##  4 350    ORTHO_2      0
##  5 351    CD34_1   15586
##  6 351    ORTHO_1    479
##  7 351    CD34_2   10476
##  8 351    ORTHO_2     39
##  9 353    CD34_1     842
## 10 353    ORTHO_1    355
## # ℹ 390 more rows
```
…
_Remember_, these are the rules:

* Each variable has its own column
* Each observation has its own row
* Each value has its own cell

__Multiple variables in a single column__

``` r
tidier_counts
```

```
## # A tibble: 400 × 3
##    ENTREZ Sample  counts
##    <chr>  <chr>    <int>
##  1 350    CD34_1     204
##  2 350    ORTHO_1      0
##  3 350    CD34_2     103
##  4 350    ORTHO_2      0
##  5 351    CD34_1   15586
##  6 351    ORTHO_1    479
##  7 351    CD34_2   10476
##  8 351    ORTHO_2     39
##  9 353    CD34_1     842
## 10 353    ORTHO_1    355
## # ℹ 390 more rows
```
…
---
## tidyr::separate
Separate allows you to break a strings in a variable by a separator. In this case the cell type and replicate number are broken by underscore.

**There are also the newer functions: separate_wider_delim(), separate_wider_position(), separate_wider_regex()**

``` r
tidy_counts <- separate(tidier_counts, Sample, sep = "_", into = c("CellType", "Rep"),
    remove = TRUE)
tidy_counts
```

```
## # A tibble: 400 × 4
##    ENTREZ CellType Rep   counts
##    <chr>  <chr>    <chr>  <int>
##  1 350    CD34     1        204
##  2 350    ORTHO    1          0
##  3 350    CD34     2        103
##  4 350    ORTHO    2          0
##  5 351    CD34     1      15586
##  6 351    ORTHO    1        479
##  7 351    CD34     2      10476
##  8 351    ORTHO    2         39
##  9 353    CD34     1        842
## 10 353    ORTHO    1        355
## # ℹ 390 more rows
```

---
## tidyr::unite
Unite can go the other way. The *remove* argument controls whether the arguments that are being united are also dropped in the new object. This is especially useful if you want to combine variables to make a specific sample ID.

``` r
unite(tidy_counts, Sample, CellType, Rep, remove = FALSE)
```

```
## # A tibble: 400 × 5
##    ENTREZ Sample  CellType Rep   counts
##    <chr>  <chr>   <chr>    <chr>  <int>
##  1 350    CD34_1  CD34     1        204
##  2 350    ORTHO_1 ORTHO    1          0
##  3 350    CD34_2  CD34     2        103
##  4 350    ORTHO_2 ORTHO    2          0
##  5 351    CD34_1  CD34     1      15586
##  6 351    ORTHO_1 ORTHO    1        479
##  7 351    CD34_2  CD34     2      10476
##  8 351    ORTHO_2 ORTHO    2         39
##  9 353    CD34_1  CD34     1        842
## 10 353    ORTHO_1 ORTHO    1        355
## # ℹ 390 more rows
```
…
R added native in-built piping options in 2021 using **|>**. 

This way there are no intermediates and the steps in your data analysis are logical and clear unlike nested code.

``` r
tidy_counts <- untidy_counts |> # start with untidy counts
  pivot_longer(cols= 2:5,  names_to ="Sample", values_to = "counts") |> # pivot tibble to a single count column
  separate(Sample, sep = "_", into = c("CellType","Rep"), remove=FALSE) # split metadata
tidy_counts
```

```
## # A tibble: 400 × 5
##    ENTREZ Sample  CellType Rep   counts
##    <chr>  <chr>   <chr>    <chr>  <int>
##  1 350    CD34_1  CD34     1        204
##  2 350    ORTHO_1 ORTHO    1          0
##  3 350    CD34_2  CD34     2        103
##  4 350    ORTHO_2 ORTHO    2          0
##  5 351    CD34_1  CD34     1      15586
##  6 351    ORTHO_1 ORTHO    1        479
##  7 351    CD34_2  CD34     2      10476
##  8 351    ORTHO_2 ORTHO    2         39
##  9 353    CD34_1  CD34     1        842
## 10 353    ORTHO_1 ORTHO    1        355
## # ℹ 390 more rows
```

---
## Piping in tidy

The magrittR package developed the %>% pipe as part of Tidyverse. This pipe is loaded in with the tidyverse. On it's face value the tidyverse pipe works in a similar way to the base pipe. 

``` r
tidy_counts <- untidy_counts %>%
    gather(key = Sample, value = counts, -ENTREZ) %>%
    separate(Sample, sep = "_", into = c("CellType", "Rep"), remove = FALSE)
tidy_counts
```

```
## # A tibble: 400 × 5
##    ENTREZ Sample CellType Rep   counts
##    <chr>  <chr>  <chr>    <chr>  <int>
##  1 350    CD34_1 CD34     1        204
##  2 351    CD34_1 CD34     1      15586
##  3 353    CD34_1 CD34     1        842
##  4 354    CD34_1 CD34     1          0
##  5 355    CD34_1 CD34     1        123
##  6 356    CD34_1 CD34     1          1
##  7 357    CD34_1 CD34     1        380
##  8 358    CD34_1 CD34     1        572
##  9 359    CD34_1 CD34     1          0
## 10 360    CD34_1 CD34     1        320
## # ℹ 390 more rows
```
…
Often the tidyverse pipe is more popular. The magrittR package developed the %>% pipe as part of Tidyverse prior to the base R. The RStudio shortcut Ctrl+Shift+M also insets the tidyverse pipe by default (though you can change this). That said it is also more flexible.

---
## Piping and placeholders

A period ( . ) can be used as placeholders to represent the object being piped in. 
In this case we use the period to in a logical expression, which we then use to subset itself. 

``` r
tidier_counts %>%
    .[.$counts > 0, ]
```

```
## # A tibble: 330 × 3
##    ENTREZ Sample  counts
##    <chr>  <chr>    <int>
##  1 350    CD34_1     204
##  2 350    CD34_2     103
##  3 351    CD34_1   15586
##  4 351    ORTHO_1    479
##  5 351    CD34_2   10476
##  6 351    ORTHO_2     39
##  7 353    CD34_1     842
##  8 353    ORTHO_1    355
##  9 353    CD34_2    1188
## 10 353    ORTHO_2     86
## # ℹ 320 more rows
```

---
## Piping and in-place assignment

%<>% is a modification of the pipe. This is a two way pipe that will carry the variable forward, and once expression is resolved, the result then gets assigned back to the original variable. To use this you have to actually load the actual magrittr package in to your work space. 

``` r
library(magrittr)
tidier_counts %<>%
    .[.$counts > 0, ]
tidier_counts
```

```
## # A tibble: 330 × 3
##    ENTREZ Sample  counts
##    <chr>  <chr>    <int>
##  1 350    CD34_1     204
##  2 350    CD34_2     103
##  3 351    CD34_1   15586
##  4 351    ORTHO_1    479
##  5 351    CD34_2   10476
##  6 351    ORTHO_2     39
##  7 353    CD34_1     842
##  8 353    ORTHO_1    355
##  9 353    CD34_2    1188
## 10 353    ORTHO_2     86
## # ℹ 320 more rows
```
…
## Joining

Often you have two dataframes and you want to join them together. Data frames can be joined on a shared variable _a.k.a._ a key. We want this key to be unique i.e. ENTREZ ID. 

---
## Merging dataframes

Lets start by merging two data frames. Our first input will be our count data.

``` r
tidy_counts
```

```
## # A tibble: 400 × 5
##    ENTREZ Sample CellType Rep   counts
##    <chr>  <chr>  <chr>    <chr>  <int>
##  1 350    CD34_1 CD34     1        204
##  2 351    CD34_1 CD34     1      15586
##  3 353    CD34_1 CD34     1        842
##  4 354    CD34_1 CD34     1          0
##  5 355    CD34_1 CD34     1        123
##  6 356    CD34_1 CD34     1          1
##  7 357    CD34_1 CD34     1        380
##  8 358    CD34_1 CD34     1        572
##  9 359    CD34_1 CD34     1          0
## 10 360    CD34_1 CD34     1        320
## # ℹ 390 more rows
```

---
## Merging dataframes
The second data frame is some additional information associated with each gene. 

``` r
counts_metadata
```

```
## # A tibble: 35,356 × 3
##    ID        SYMBOL     LENGTH
##    <chr>     <chr>       <int>
##  1 1         A1BG        17574
##  2 10        NAT2        14946
##  3 100       ADA         67357
##  4 1000      CDH2       245068
##  5 100008586 GAGE12F     16941
##  6 100008587 RNA5-8SN5     153
##  7 100009613 LINC02584   13282
##  8 100009667 POU5F1P5      658
##  9 100009676 ZBTB11-AS1   2797
## 10 10001     MED6        59948
## # ℹ 35,346 more rows
```
…
* A left join keeps all observations in x and those in y with matching keys.
* A right join keeps all observations in y and those in x with matching keys. 
* A full join keeps all observations in x and y

---
## dplyr::left_join 
My tidy_counts tibble is the on the left, so is the backbone for this join. This will only then show the metadata that has a matching key i.e. ENTREZID. 

``` r
left_join(tidy_counts, counts_metadata, by = c(ENTREZ = "ID"))
```

```
## # A tibble: 400 × 7
##    ENTREZ Sample CellType Rep   counts SYMBOL  LENGTH
##    <chr>  <chr>  <chr>    <chr>  <int> <chr>    <int>
##  1 350    CD34_1 CD34     1        204 APOH     44493
##  2 351    CD34_1 CD34     1      15586 APP     290594
##  3 353    CD34_1 CD34     1        842 APRT      2599
##  4 354    CD34_1 CD34     1          0 KLK3      5850
##  5 355    CD34_1 CD34     1        123 FAS      75793
##  6 356    CD34_1 CD34     1          1 FASLG     7774
##  7 357    CD34_1 CD34     1        380 SHROOM2 163015
##  8 358    CD34_1 CD34     1        572 AQP1     73245
##  9 359    CD34_1 CD34     1          0 AQP2      8142
## 10 360    CD34_1 CD34     1        320 AQP3      6441
## # ℹ 390 more rows
```
…
Filtering joins 

* A semi join only keeps all observations in x that are matched in y. y isn't returned. 
* A anti join only keeps all observations in x that are _not_ matched in y. y isn't returned. 

---
## dplyr::semi_join
Semi join only keeps observations in x that are matched in y. y is only used as a reference and is not in output

``` r
semi_join(counts_metadata, tidy_counts, by = c(ID = "ENTREZ"))
```

```
## # A tibble: 99 × 3
##    ID    SYMBOL  LENGTH
##    <chr> <chr>    <int>
##  1 350   APOH     44493
##  2 351   APP     290594
##  3 353   APRT      2599
##  4 354   KLK3      5850
##  5 355   FAS      75793
##  6 356   FASLG     7774
##  7 357   SHROOM2 163015
##  8 358   AQP1     73245
##  9 359   AQP2      8142
## 10 360   AQP3      6441
## # ℹ 89 more rows
```

---
## dplyr::anti_join
Anti join only keeps observations in x that are not matched in y. y is only used as a reference and is not in output

``` r
anti_join(counts_metadata, tidy_counts, by = c(ID = "ENTREZ"))
```

```
## # A tibble: 35,257 × 3
##    ID        SYMBOL     LENGTH
##    <chr>     <chr>       <int>
##  1 1         A1BG        17574
##  2 10        NAT2        14946
##  3 100       ADA         67357
##  4 1000      CDH2       245068
##  5 100008586 GAGE12F     16941
##  6 100008587 RNA5-8SN5     153
##  7 100009613 LINC02584   13282
##  8 100009667 POU5F1P5      658
##  9 100009676 ZBTB11-AS1   2797
## 10 10001     MED6        59948
## # ℹ 35,247 more rows
```
…
---
## dplyr::select
**select** allows you to work with the columns in your tibble. 
At its most basic **select** allows you to make a vector from a specific variable.

*NOTE: We are directly pointing to the select function within dplyr by using two semi-colons. We have to do this if we have multiple packages loaded in with the same name. This is really common with the select function as it is quite a generic name.*

``` r
dplyr::select(tidy_counts_meta, counts)
```

```
## # A tibble: 396 × 1
##    counts
##     <int>
##  1    204
##  2  15586
##  3    842
##  4      0
##  5    123
##  6      1
##  7    380
##  8    572
##  9      0
## 10    320
## # ℹ 386 more rows
```
…
